[api-updater (non-obsolete-error-filter)] 21/10/2022 11:06:37 : Starting C:/Program Files/Unity/Hub/Editor/2020.3.19f1/Editor/Data/Tools/ScriptUpdater/APIUpdater.NonObsoleteApiUpdaterDetector.exe
[api-updater (non-obsolete-error-filter)] 
----------------------------------
jit/startup time      : 207,3685ms
moved types parse time: 44ms
candidates parse time : 0ms
C# parse time         : 153ms
candidates check time : 18ms
console write time    : 0ms

